{
  "dependencies": {
    "mssql1": {
      "type": "mssql",
      "connectionId": "ConnectionStrings:IdentityConnection"
    },
    "mssql2": {
      "type": "mssql",
      "connectionId": "ConnectionStrings:CatalogConnection"
    },
    "appInsights1": {
      "type": "appInsights",
      "connectionId": "APPINSIGHTS_CONNECTIONSTRING"
    }
  }
}