{
  "dependencies": {
    "mssql1": {
      "resourceId": "/subscriptions/[parameters('subscriptionId')]/resourcegroups/[parameters('resourceGroupName')]/providers/Microsoft.Sql/servers/eshopm9dbserver/databases/Web_db",
      "type": "mssql.azure",
      "connectionId": "ConnectionStrings:IdentityConnection",
      "secretStore": "AzureAppSettings"
    },
    "mssql2": {
      "resourceId": "/subscriptions/[parameters('subscriptionId')]/resourceGroups/[parameters('resourceGroupName')]/providers/Microsoft.Sql/servers/eshopm9dbserver/databases/Web_db",
      "type": "mssql.azure",
      "connectionId": "ConnectionStrings:CatalogConnection",
      "secretStore": "AzureAppSettings"
    },
    "appInsights1": {
      "resourceId": "/subscriptions/[parameters('subscriptionId')]/resourcegroups/[parameters('resourceGroupName')]/providers/Microsoft.Insights/components/eShopM9AppIns",
      "type": "appInsights.azure",
      "connectionId": "APPINSIGHTS_CONNECTIONSTRING",
      "secretStore": "AzureAppSettings"
    }
  }
}